Project 1
…
total_mental %>% summarize(n_distinct(Year))

## # A tibble: 1 x 1
##   `n_distinct(Year)`
##                <int>
## 1                 28

# Numerical summary statistics
total_mental %>% group_by(Year) %>% summarize(sd(`Schizophrenia (%)`))

## # A tibble: 28 x 2
##     Year `sd(\`Schizophrenia (%)\`)`
##    <dbl>                       <dbl>
##  1  1990                      0.0440
##  2  1991                      0.0440
##  3  1992                      0.0440
##  4  1993                      0.0440
##  5  1994                      0.0441
##  6  1995                      0.0441
##  7  1996                      0.0442
##  8  1997                      0.0443
##  9  1998                      0.0444
## 10  1999                      0.0445
## # … with 18 more rows

total_mental %>% group_by(Entity) %>% summarize(mean(`Bipolar disorder (%)`))

## # A tibble: 231 x 2
##    Entity               `mean(\`Bipolar disorder (%)\`)`
##    <chr>                                           <dbl>
##  1 Afghanistan                                     0.702
##  2 Albania                                         0.700
##  3 Algeria                                         0.810
##  4 American Samoa                                  0.467
##  5 Andean Latin America                            0.876
##  6 Andorra                                         0.964
##  7 Angola                                          0.619
##  8 Antigua and Barbuda                             0.924
##  9 Argentina                                       0.766
## 10 Armenia                                         0.714
## # … with 221 more rows
…
## # A tibble: 1 x 1
##   `min(\`People Suffering From Depression\`)`
##                                         <dbl>
## 1                                        931.

total_mental %>% summarize(min(`Eating disorders (%)`))

## # A tibble: 1 x 1
##   `min(\`Eating disorders (%)\`)`
##                             <dbl>
## 1                          0.0739

total_mental %>% group_by(Entity, Code) %>% summarize(mean(`Drug use disorders (%)`))

## # A tibble: 231 x 3
## # Groups:   Entity [231]
##    Entity               Code  `mean(\`Drug use disorders (%)\`)`
##    <chr>                <chr>                              <dbl>
##  1 Afghanistan          AFG                                2.12 
##  2 Albania              ALB                                0.499
##  3 Algeria              DZA                                1.54 
##  4 American Samoa       ASM                                0.759
##  5 Andean Latin America <NA>                               0.647
##  6 Andorra              AND                                0.885
##  7 Angola               AGO                                0.512
##  8 Antigua and Barbuda  ATG                                0.776
##  9 Argentina            ARG                                0.939
## 10 Armenia              ARM                                0.465
## # … with 221 more rows
…
total_mental %>% summarize(cor(`Anxiety disorders (%)`, `Depression (%)`, 
    use = "pair"))

## # A tibble: 1 x 1
##   `cor(\`Anxiety disorders (%)\`, \`Depression (%)\`, use = "pair")`
##                                                                <dbl>
## 1                                                              0.379

total_mental %>% select(Entity, Year, `Alcohol use disorders (%)`) %>% 
    arrange(desc(`Alcohol use disorders (%)`))

## # A tibble: 6,468 x 3
##    Entity   Year `Alcohol use disorders (%)`
##    <chr>   <dbl>                       <dbl>
##  1 Belarus  2010                        5.47
##  2 Belarus  2011                        5.47
##  3 Belarus  2012                        5.47
##  4 Belarus  2009                        5.46
##  5 Belarus  2013                        5.46
##  6 Belarus  2014                        5.44
##  7 Belarus  2008                        5.43
##  8 Belarus  2015                        5.41
##  9 Belarus  2007                        5.40
## 10 Russia   2000                        5.39
## # … with 6,458 more rows

total_mental %>% select(Entity, Year, `Depression (%)`, `People Suffering From Depression`) %>% 
    mutate(dep.decimal = `Depression (%)`/100, Total_Pop = `People Suffering From Depression`/dep.decimal)

## # A tibble: 6,468 x 6
##    Entity    Year `Depression (%)` `People Suffering From… dep.decimal Total_Pop
##    <chr>    <dbl>            <dbl>                   <dbl>       <dbl>     <dbl>
##  1 Afghani…  1990             4.07                 318436.      0.0407  7820457.
##  2 Afghani…  1991             4.08                 329045.      0.0408  8065750.
##  3 Afghani…  1992             4.09                 382545.      0.0409  9356924.
##  4 Afghani…  1993             4.10                 440382.      0.0410 10751003.
##  5 Afghani…  1994             4.10                 456917.      0.0410 11145446.
##  6 Afghani…  1995             4.10                 471475.      0.0410 11487607.
##  7 Afghani…  1996             4.11                 486916.      0.0411 11854319.
##  8 Afghani…  1997             4.11                 499770.      0.0411 12157398.
##  9 Afghani…  1998             4.11                 509695.      0.0411 12387973.
## 10 Afghani…  1999             4.12                 503305.      0.0412 12223159.
## # … with 6,458 more rows
…
Visualizations and Plots

# heatmap
tidycor <- cormat %>% as.data.frame %>% rownames_to_column("var1") %>% 
    pivot_longer(-1, names_to = "var2", values_to = "correlation")
tidycor

## # A tibble: 49 x 3
##    var1                 var2                      correlation
##    <chr>                <chr>                           <dbl>
##  1 Schizophrenia (%)    Schizophrenia (%)              1     
##  2 Schizophrenia (%)    Bipolar disorder (%)           0.198 
##  3 Schizophrenia (%)    Eating disorders (%)           0.669 
##  4 Schizophrenia (%)    Anxiety disorders (%)          0.469 
##  5 Schizophrenia (%)    Drug use disorders (%)         0.475 
##  6 Schizophrenia (%)    Depression (%)                 0.167 
##  7 Schizophrenia (%)    Alcohol use disorders (%)     -0.0592
##  8 Bipolar disorder (%) Schizophrenia (%)              0.198 
##  9 Bipolar disorder (%) Bipolar disorder (%)           1     
## 10 Bipolar disorder (%) Eating disorders (%)           0.708 
## # … with 39 more rows
…
